<?xml version="1.0" encoding="UTF-8" standalone="no"?>
<!-- Created with Inkscape (http://www.inkscape.org/) -->

<svg
   xmlns:dc="http://purl.org/dc/elements/1.1/"
   xmlns:cc="http://creativecommons.org/ns#"
   xmlns:rdf="http://www.w3.org/1999/02/22-rdf-syntax-ns#"
   xmlns:svg="http://www.w3.org/2000/svg"
   xmlns="http://www.w3.org/2000/svg"
   xmlns:sodipodi="http://sodipodi.sourceforge.net/DTD/sodipodi-0.dtd"
   xmlns:inkscape="http://www.inkscape.org/namespaces/inkscape"
   width="8"
   height="8"
   viewBox="0 0 2.1166666 2.1166667"
   version="1.1"
   id="svg8"
   inkscape:version="0.92.4 (unknown)"
   sodipodi:docname="HE14.svg">
  <defs
     id="defs2" />
  <sodipodi:namedview
     id="base"
     pagecolor="#ffffff"
     bordercolor="#666666"
     borderopacity="1.0"
     inkscape:pageopacity="0.0"
     inkscape:pageshadow="2"
     inkscape:zoom="45.254834"
     inkscape:cx="3.2518525"
     inkscape:cy="0.85771027"
     inkscape:document-units="mm"
     inkscape:current-layer="layer1-7-1"
     showgrid="true"
     units="px"
     objecttolerance="20"
     inkscape:window-width="1920"
     inkscape:window-height="1051"
     inkscape:window-x="0"
     inkscape:window-y="0"
     inkscape:window-maximized="1">
    <inkscape:grid
       type="xygrid"
       id="grid5633"
       spacingx="0.13229167"
       spacingy="0.13229167" />
  </sodipodi:namedview>
  <metadata
     id="metadata5">
    <rdf:RDF>
      <cc:Work
         rdf:about="">
        <dc:format>image/svg+xml</dc:format>
        <dc:type
           rdf:resource="http://purl.org/dc/dcmitype/StillImage" />
        <dc:title></dc:title>
      </cc:Work>
    </rdf:RDF>
  </metadata>
  <g
     inkscape:label="Image"
     inkscape:groupmode="layer"
     id="layer1"
     transform="translate(0,-294.88332)">
    <g
       transform="translate(0,-1.1187566e-5)"
       id="layer1-7"
       inkscape:label="addons"
       inkscape:groupmode="layer">
      <circle
         r="0.12000744"
         cy="295.32819"
         cx="0.34493652"
         id="path1387"
         style="display:none;fill:none;fill-opacity:1;stroke:#ffffff;stroke-width:0.091;stroke-linecap:round;stroke-linejoin:round;stroke-miterlimit:4;stroke-dasharray:none;stroke-opacity:0.26630435"
         inkscape:label="circle" />
    </g>
    <g
       transform="translate(-2e-8,2.8442327e-6)"
       id="layer1-9"
       inkscape:label="Image">
      <g
         transform="rotate(90,1.0583292,295.94165)"
         inkscape:label="background"
         id="g1303">
        <path
           inkscape:label="background"
           sodipodi:nodetypes="cccc"
           inkscape:connector-curvature="0"
           d="m 2.1166667,294.88333 v 0.92604 c -0.5291667,0 -0.9260417,-0.39687 -0.9260417,-0.92604 z"
           id="path1219"
           style="fill:#729927;fill-opacity:1;stroke:none;stroke-width:0.26458332;stroke-linecap:round;stroke-linejoin:round;stroke-miterlimit:4;stroke-dasharray:none;stroke-opacity:1" />
        <path
           style="display:none;fill:none;fill-rule:evenodd;stroke:#536728;stroke-width:0.26499999;stroke-linecap:butt;stroke-linejoin:miter;stroke-miterlimit:4;stroke-dasharray:none;stroke-opacity:1"
           d="m 2.11667,296.07394 c -0.66146,0 -1.19062004,-0.52917 -1.19063004,-1.19063"
           id="path1885-0-9-4"
           inkscape:connector-curvature="0"
           sodipodi:nodetypes="cc"
           inkscape:label="outer" />
        <path
           style="fill:none;fill-rule:evenodd;stroke:#536728;stroke-width:0.26458332;stroke-linecap:butt;stroke-linejoin:miter;stroke-miterlimit:4;stroke-dasharray:none;stroke-opacity:1"
           d="m 2.11667,295.80935 c -0.52917,0 -0.92604,-0.39687 -0.92604,-0.92604"
           id="path1885-2-0"
           inkscape:connector-curvature="0"
           sodipodi:nodetypes="cc"
           inkscape:label="inner" />
      </g>
      <g
         inkscape:groupmode="layer"
         inkscape:label="addons"
         id="layer1-7-3"
         transform="translate(0,-1.1187566e-5)">
        <path
           inkscape:label="triangle"
           style="fill:#0a0a0a;fill-opacity:0.31372549;stroke:none;stroke-width:0.125;stroke-linecap:round;stroke-linejoin:round;stroke-miterlimit:4;stroke-dasharray:none;stroke-opacity:0.26630435"
           id="path1395"
           d="m 1.6867188,296.75724 0.1653646,-0.28641 0.1653646,0.28641 z"
           inkscape:connector-curvature="0"
           sodipodi:nodetypes="cccc" />
        <circle
           inkscape:label="circle"
           style="display:none;fill:none;fill-opacity:1;stroke:#ffffff;stroke-width:0.091;stroke-linecap:round;stroke-linejoin:round;stroke-miterlimit:4;stroke-dasharray:none;stroke-opacity:0.26630435"
           id="path1387-9"
           cx="1.7505355"
           cy="295.17105"
           r="0.12000744" />
      </g>
    </g>
    <g
       transform="translate(-2.08e-5,-4.1533333e-6)"
       id="layer1-96"
       inkscape:label="Image">
      <g
         transform="rotate(-90,1.0583408,295.94165)"
         inkscape:label="background"
         id="g1303-3">
        <path
           inkscape:label="background"
           sodipodi:nodetypes="cccc"
           inkscape:connector-curvature="0"
           d="m 2.1166667,294.88333 v 0.92604 c -0.5291667,0 -0.9260417,-0.39687 -0.9260417,-0.92604 z"
           id="path1219-8"
           style="fill:#729927;fill-opacity:1;stroke:none;stroke-width:0.26458332;stroke-linecap:round;stroke-linejoin:round;stroke-miterlimit:4;stroke-dasharray:none;stroke-opacity:1" />
        <path
           style="display:none;fill:none;fill-rule:evenodd;stroke:#536728;stroke-width:0.26499999;stroke-linecap:butt;stroke-linejoin:miter;stroke-miterlimit:4;stroke-dasharray:none;stroke-opacity:1"
           d="m 2.11667,296.07394 c -0.66146,0 -1.19062004,-0.52917 -1.19063004,-1.19063"
           id="path1885-0-9-4-5"
           inkscape:connector-curvature="0"
           sodipodi:nodetypes="cc"
           inkscape:label="outer" />
        <path
           style="fill:none;fill-rule:evenodd;stroke:#536728;stroke-width:0.26458332;stroke-linecap:butt;stroke-linejoin:miter;stroke-miterlimit:4;stroke-dasharray:none;stroke-opacity:1"
           d="m 2.11667,295.80935 c -0.52917,0 -0.92604,-0.39687 -0.92604,-0.92604"
           id="path1885-2-0-6"
           inkscape:connector-curvature="0"
           sodipodi:nodetypes="cc"
           inkscape:label="inner" />
      </g>
      <g
         inkscape:groupmode="layer"
         inkscape:label="addons"
         id="layer1-7-1"
         transform="translate(0,-1.1187566e-5)">
        <path
           inkscape:label="triangle"
           style="display:none;fill:#0a0a0a;fill-opacity:0.31372549;stroke:none;stroke-width:0.125;stroke-linecap:round;stroke-linejoin:round;stroke-miterlimit:4;stroke-dasharray:none;stroke-opacity:0.26630435"
           id="path1395-1"
           d="m -1.1906254,297.52916 0.16537,-0.28641 0.16535999,0.28641 z"
           inkscape:connector-curvature="0"
           sodipodi:nodetypes="cccc" />
        <circle
           inkscape:label="circle"
           style="fill:none;fill-opacity:1;stroke:#ffffff;stroke-width:0.091;stroke-linecap:round;stroke-linejoin:round;stroke-miterlimit:4;stroke-dasharray:none;stroke-opacity:0.26630435"
           id="path1387-5"
           cx="0.52270347"
           cy="295.12228"
           r="0.12000744" />
      </g>
    </g>
  </g>
</svg>
