<?xml version="1.0" encoding="UTF-8" standalone="no"?>
<!-- Created with Inkscape (http://www.inkscape.org/) -->

<svg
   xmlns:dc="http://purl.org/dc/elements/1.1/"
   xmlns:cc="http://creativecommons.org/ns#"
   xmlns:rdf="http://www.w3.org/1999/02/22-rdf-syntax-ns#"
   xmlns:svg="http://www.w3.org/2000/svg"
   xmlns="http://www.w3.org/2000/svg"
   xmlns:sodipodi="http://sodipodi.sourceforge.net/DTD/sodipodi-0.dtd"
   xmlns:inkscape="http://www.inkscape.org/namespaces/inkscape"
   width="8"
   height="8"
   viewBox="0 0 2.1166666 2.1166667"
   version="1.1"
   id="svg840"
   inkscape:version="0.92.4 (unknown)"
   sodipodi:docname="LE16.svg">
  <defs
     id="defs834" />
  <sodipodi:namedview
     id="base"
     pagecolor="#ffffff"
     bordercolor="#666666"
     borderopacity="1.0"
     inkscape:pageopacity="0.0"
     inkscape:pageshadow="2"
     inkscape:zoom="64"
     inkscape:cx="5.7082857"
     inkscape:cy="3.6537002"
     inkscape:document-units="mm"
     inkscape:current-layer="g907-4"
     showgrid="true"
     units="px"
     inkscape:window-width="1920"
     inkscape:window-height="1051"
     inkscape:window-x="0"
     inkscape:window-y="0"
     inkscape:window-maximized="1">
    <inkscape:grid
       type="xygrid"
       id="grid909"
       spacingx="0.13229167"
       spacingy="0.13229167" />
  </sodipodi:namedview>
  <metadata
     id="metadata837">
    <rdf:RDF>
      <cc:Work
         rdf:about="">
        <dc:format>image/svg+xml</dc:format>
        <dc:type
           rdf:resource="http://purl.org/dc/dcmitype/StillImage" />
        <dc:title></dc:title>
      </cc:Work>
    </rdf:RDF>
  </metadata>
  <g
     transform="translate(2.5796873,-293.61001)"
     id="layer1"
     inkscape:label="Image"
     inkscape:groupmode="layer">
    <g
       inkscape:label="Addons"
       inkscape:groupmode="layer"
       id="g907">
      <circle
         style="display:inline;fill:none;fill-opacity:1;stroke:#ffffff;stroke-width:0.09071429;stroke-linecap:round;stroke-linejoin:round;stroke-miterlimit:4;stroke-dasharray:none;stroke-opacity:0.26630435"
         id="path1387"
         cx="0.30573556"
         cy="296.5347"
         r="0.12000744"
         inkscape:label="Circle" />
      <path
         style="display:none;fill:#0a0a0a;fill-opacity:0.31372549;stroke:none;stroke-width:0.125;stroke-linecap:round;stroke-linejoin:round;stroke-miterlimit:4;stroke-dasharray:none;stroke-opacity:0.26630435"
         id="path1395"
         d="m -0.89296852,295.35163 0.1653646,-0.28641 0.1653646,0.28641 z"
         inkscape:connector-curvature="0"
         sodipodi:nodetypes="cccc"
         inkscape:label="Triangle" />
    </g>
  </g>
  <g
     transform="translate(0.07399858,-294.92868)"
     id="layer1-1"
     inkscape:label="Image"
     inkscape:groupmode="layer">
    <g
       id="g2011"
       transform="rotate(90,0.98433411,295.98701)">
      <g
         transform="rotate(90,0.45518912,295.35496)"
         id="layer1-7"
         inkscape:label="Background">
        <path
           style="fill:#93c237;fill-opacity:1;stroke:none;stroke-width:0.06019084;stroke-linecap:round;stroke-linejoin:round;stroke-miterlimit:4;stroke-dasharray:none;stroke-opacity:1"
           id="path815"
           d="m 1.2195348,294.82581 -1.19062458,1.05834 v -0.92604 c 0.66145835,0 1.19062498,-0.52917 1.19062498,-1.19063 h 0.9260417 z"
           inkscape:connector-curvature="0"
           sodipodi:nodetypes="cccccc"
           inkscape:label="Background" />
        <path
           sodipodi:nodetypes="cc"
           inkscape:connector-curvature="0"
           id="path1885-0-9-4-2-2-5"
           d="m 0.95495191,293.76748 v 2.11666"
           style="display:none;fill:none;fill-rule:evenodd;stroke:#649927;stroke-width:0.26458332;stroke-linecap:butt;stroke-linejoin:miter;stroke-miterlimit:4;stroke-dasharray:none;stroke-opacity:1"
           inkscape:label="Straight" />
        <path
           sodipodi:nodetypes="cc"
           inkscape:connector-curvature="0"
           id="path1885-0"
           d="m 1.2195352,293.76748 c 0,0.66146 -0.52916658,1.19062 -1.19062498,1.19063"
           style="display:inline;fill:none;fill-rule:evenodd;stroke:#649927;stroke-width:0.26458332;stroke-linecap:butt;stroke-linejoin:miter;stroke-miterlimit:4;stroke-dasharray:none;stroke-opacity:1"
           inkscape:label="Outer" />
        <path
           sodipodi:nodetypes="cc"
           inkscape:connector-curvature="0"
           id="path1885"
           d="m 0.95495191,293.76748 c 2e-8,0.52917 -0.39687499,0.92604 -0.92604167,0.92604"
           style="display:none;fill:none;fill-rule:evenodd;stroke:#649927;stroke-width:0.26458332;stroke-linecap:butt;stroke-linejoin:miter;stroke-miterlimit:4;stroke-dasharray:none;stroke-opacity:1"
           inkscape:label="Inner" />
      </g>
      <g
         transform="rotate(-90,1.6163891,295.45787)"
         id="layer1-7-0"
         inkscape:label="Background">
        <path
           style="fill:#93c237;fill-opacity:1;stroke:none;stroke-width:0.06019084;stroke-linecap:round;stroke-linejoin:round;stroke-miterlimit:4;stroke-dasharray:none;stroke-opacity:1"
           id="path815-8"
           d="m 1.0872458,294.95811 -1.05833558,0.92604 v -0.92604 c 0.66145835,0 1.19062498,-0.52917 1.19062498,-1.19063 h 0.9260417 z"
           inkscape:connector-curvature="0"
           sodipodi:nodetypes="cccccc"
           inkscape:label="Background" />
        <path
           sodipodi:nodetypes="cc"
           inkscape:connector-curvature="0"
           id="path1885-0-9-4-2-2-5-5"
           d="m 0.95495191,293.76748 v 2.11666"
           style="display:none;fill:none;fill-rule:evenodd;stroke:#649927;stroke-width:0.26458332;stroke-linecap:butt;stroke-linejoin:miter;stroke-miterlimit:4;stroke-dasharray:none;stroke-opacity:1"
           inkscape:label="Straight" />
        <path
           sodipodi:nodetypes="cc"
           inkscape:connector-curvature="0"
           id="path1885-0-0"
           d="m 1.2195352,293.76748 c 0,0.66146 -0.52916658,1.19062 -1.19062498,1.19063"
           style="display:inline;fill:none;fill-rule:evenodd;stroke:#649927;stroke-width:0.26458332;stroke-linecap:butt;stroke-linejoin:miter;stroke-miterlimit:4;stroke-dasharray:none;stroke-opacity:1"
           inkscape:label="Outer" />
        <path
           sodipodi:nodetypes="cc"
           inkscape:connector-curvature="0"
           id="path1885-6"
           d="m 0.95495191,293.76748 c 2e-8,0.52917 -0.39687499,0.92604 -0.92604167,0.92604"
           style="display:none;fill:none;fill-rule:evenodd;stroke:#649927;stroke-width:0.26458332;stroke-linecap:butt;stroke-linejoin:miter;stroke-miterlimit:4;stroke-dasharray:none;stroke-opacity:1"
           inkscape:label="Inner" />
      </g>
    </g>
    <g
       inkscape:label="Addons"
       inkscape:groupmode="layer"
       id="g907-4">
      <circle
         style="display:inline;fill:none;fill-opacity:1;stroke:#ffffff;stroke-width:0.09071429;stroke-linecap:round;stroke-linejoin:round;stroke-miterlimit:4;stroke-dasharray:none;stroke-opacity:0.26630435"
         id="path1387-6"
         cx="0.44729862"
         cy="296.84717"
         r="0.12000744"
         inkscape:label="Circle" />
      <path
         style="display:inline;fill:#0a0a0a;fill-opacity:0.31372549;stroke:none;stroke-width:0.125;stroke-linecap:round;stroke-linejoin:round;stroke-miterlimit:4;stroke-dasharray:none;stroke-opacity:0.26630435"
         id="path1395-2"
         d="m 1.4473556,295.45785 0.1653646,-0.28641 0.1653646,0.28641 z"
         inkscape:connector-curvature="0"
         sodipodi:nodetypes="cccc"
         inkscape:label="Triangle" />
    </g>
  </g>
</svg>
