<?xml version="1.0" encoding="UTF-8" standalone="no"?>
<!-- Created with Inkscape (http://www.inkscape.org/) -->

<svg
   xmlns:dc="http://purl.org/dc/elements/1.1/"
   xmlns:cc="http://creativecommons.org/ns#"
   xmlns:rdf="http://www.w3.org/1999/02/22-rdf-syntax-ns#"
   xmlns:svg="http://www.w3.org/2000/svg"
   xmlns="http://www.w3.org/2000/svg"
   xmlns:sodipodi="http://sodipodi.sourceforge.net/DTD/sodipodi-0.dtd"
   xmlns:inkscape="http://www.inkscape.org/namespaces/inkscape"
   width="8"
   height="8"
   viewBox="0 0 2.1166666 2.1166667"
   version="1.1"
   id="svg840"
   inkscape:version="0.92.4 (unknown)"
   sodipodi:docname="LE4.svg">
  <defs
     id="defs834" />
  <sodipodi:namedview
     id="base"
     pagecolor="#ffffff"
     bordercolor="#666666"
     borderopacity="1.0"
     inkscape:pageopacity="0.0"
     inkscape:pageshadow="2"
     inkscape:zoom="45.254834"
     inkscape:cx="3.5215476"
     inkscape:cy="3.5819398"
     inkscape:document-units="mm"
     inkscape:current-layer="g907"
     showgrid="true"
     units="px"
     inkscape:window-width="1920"
     inkscape:window-height="1051"
     inkscape:window-x="0"
     inkscape:window-y="0"
     inkscape:window-maximized="1">
    <inkscape:grid
       type="xygrid"
       id="grid909"
       spacingx="0.13229167"
       spacingy="0.13229167" />
  </sodipodi:namedview>
  <metadata
     id="metadata837">
    <rdf:RDF>
      <cc:Work
         rdf:about="">
        <dc:format>image/svg+xml</dc:format>
        <dc:type
           rdf:resource="http://purl.org/dc/dcmitype/StillImage" />
        <dc:title></dc:title>
      </cc:Work>
    </rdf:RDF>
  </metadata>
  <g
     inkscape:label="Image"
     inkscape:groupmode="layer"
     id="layer1"
     transform="translate(0,-294.88332)">
    <g
       transform="rotate(-90,1.6307084,295.39819)"
       id="layer1-7"
       inkscape:label="Background">
      <path
         style="fill:#93c237;fill-opacity:1;stroke:none;stroke-width:0.06019084;stroke-linecap:round;stroke-linejoin:round;stroke-miterlimit:4;stroke-dasharray:none;stroke-opacity:1"
         id="path815"
         d="m 0.02891022,293.76748 v 2.11667 h 0.92604169 v -2.11667 z"
         inkscape:connector-curvature="0"
         sodipodi:nodetypes="ccccc"
         inkscape:label="Background" />
      <path
         sodipodi:nodetypes="cc"
         inkscape:connector-curvature="0"
         id="path1885-0-9-4-2-2-5"
         d="m 0.95495191,293.76748 v 2.11666"
         style="fill:none;fill-rule:evenodd;stroke:#649927;stroke-width:0.26458332;stroke-linecap:butt;stroke-linejoin:miter;stroke-miterlimit:4;stroke-dasharray:none;stroke-opacity:1"
         inkscape:label="Straight" />
      <path
         sodipodi:nodetypes="cc"
         inkscape:connector-curvature="0"
         id="path1885-0"
         d="m 1.2195352,293.76748 c 0,0.66146 -0.52916658,1.19062 -1.19062498,1.19063"
         style="display:none;fill:none;fill-rule:evenodd;stroke:#649927;stroke-width:0.26458332;stroke-linecap:butt;stroke-linejoin:miter;stroke-miterlimit:4;stroke-dasharray:none;stroke-opacity:1"
         inkscape:label="Outer" />
      <path
         sodipodi:nodetypes="cc"
         inkscape:connector-curvature="0"
         id="path1885"
         d="m 0.95495191,293.76748 c 2e-8,0.52917 -0.39687499,0.92604 -0.92604167,0.92604"
         style="display:none;fill:none;fill-rule:evenodd;stroke:#649927;stroke-width:0.26458332;stroke-linecap:butt;stroke-linejoin:miter;stroke-miterlimit:4;stroke-dasharray:none;stroke-opacity:1"
         inkscape:label="Inner" />
    </g>
    <g
       id="g907"
       inkscape:groupmode="layer"
       inkscape:label="Addons">
      <circle
         inkscape:label="Circle"
         r="0.12000744"
         cy="296.48209"
         cx="0.99854827"
         id="path1387"
         style="display:inline;fill:none;fill-opacity:1;stroke:#ffffff;stroke-width:0.09071429;stroke-linecap:round;stroke-linejoin:round;stroke-miterlimit:4;stroke-dasharray:none;stroke-opacity:0.26630435" />
      <path
         inkscape:label="Triangle"
         sodipodi:nodetypes="cccc"
         inkscape:connector-curvature="0"
         d="m 1.6618428,295.62358 0.1653646,-0.28641 0.1653646,0.28641 z"
         id="path1395"
         style="display:none;fill:#0a0a0a;fill-opacity:0.31372549;stroke:none;stroke-width:0.125;stroke-linecap:round;stroke-linejoin:round;stroke-miterlimit:4;stroke-dasharray:none;stroke-opacity:0.26630435" />
    </g>
  </g>
</svg>
