<?xml version="1.0" encoding="UTF-8" standalone="no"?>
<!-- Created with Inkscape (http://www.inkscape.org/) -->

<svg
   xmlns:dc="http://purl.org/dc/elements/1.1/"
   xmlns:cc="http://creativecommons.org/ns#"
   xmlns:rdf="http://www.w3.org/1999/02/22-rdf-syntax-ns#"
   xmlns:svg="http://www.w3.org/2000/svg"
   xmlns="http://www.w3.org/2000/svg"
   xmlns:sodipodi="http://sodipodi.sourceforge.net/DTD/sodipodi-0.dtd"
   xmlns:inkscape="http://www.inkscape.org/namespaces/inkscape"
   width="147.76656mm"
   height="186.06462mm"
   viewBox="0 0 147.76656 186.06462"
   version="1.1"
   id="svg8"
   inkscape:version="0.92.4 (unknown)"
   sodipodi:docname="flag.svg">
  <defs
     id="defs2" />
  <sodipodi:namedview
     id="base"
     pagecolor="#ffffff"
     bordercolor="#666666"
     borderopacity="1.0"
     inkscape:pageopacity="0.0"
     inkscape:pageshadow="2"
     inkscape:zoom="0.98994949"
     inkscape:cx="32.243543"
     inkscape:cy="400.29959"
     inkscape:document-units="mm"
     inkscape:current-layer="svg8"
     showgrid="false"
     inkscape:window-width="1920"
     inkscape:window-height="1051"
     inkscape:window-x="0"
     inkscape:window-y="0"
     inkscape:window-maximized="1"
     fit-margin-top="0"
     fit-margin-left="0"
     fit-margin-right="0"
     fit-margin-bottom="0" />
  <metadata
     id="metadata5">
    <rdf:RDF>
      <cc:Work
         rdf:about="">
        <dc:format>image/svg+xml</dc:format>
        <dc:type
           rdf:resource="http://purl.org/dc/dcmitype/StillImage" />
        <dc:title></dc:title>
      </cc:Work>
    </rdf:RDF>
  </metadata>
  <path
     style="fill:#aa1b00;fill-opacity:1;fill-rule:evenodd;stroke:#651000;stroke-width:3.79999995;stroke-linecap:butt;stroke-linejoin:miter;stroke-miterlimit:4;stroke-dasharray:none;stroke-opacity:1"
     d="m 17.336501,20.989815 c 34.878673,-17.6397883 56.995491,-1.694092 66.550121,8.018088 14.11913,14.351956 28.196928,10.95805 57.596578,12.160761 -20.17885,2.539062 -32.52011,8.818787 -45.703088,13.630747 12.207628,8.019194 23.525938,10.10559 44.500368,12.160762 -35.55308,15.41865 -61.874708,10.38059 -85.258977,-0.26727 -11.844462,-5.393287 -20.252664,-8.325875 -26.326047,-7.483544 -6.073383,0.842331 -8.018087,4.944486 -8.018087,4.944486 0,0 -3.04784,-1.534511 -3.207235,-4.810854 -0.233943,-4.808668 1.546669,-7.712429 4.944487,-13.096204 7.205892,-11.417592 1.887528,-17.734224 -5.07812,-25.256972 z"
     id="path885"
     inkscape:connector-curvature="0"
     sodipodi:nodetypes="cscccszcssc" />
  <rect
     style="opacity:1;vector-effect:none;fill:#9f9b80;fill-opacity:1;fill-rule:evenodd;stroke:#3f3d30;stroke-width:3.79999995;stroke-linecap:butt;stroke-linejoin:miter;stroke-miterlimit:4;stroke-dasharray:none;stroke-dashoffset:0;stroke-opacity:1"
     id="rect893"
     width="6.4209447"
     height="161.79338"
     x="9.4682007"
     y="14.450505" />
  <circle
     style="fill:#9f9b80;fill-opacity:1;stroke:#3f3d30;stroke-width:3.79999995;stroke-linecap:round;stroke-linejoin:round;stroke-miterlimit:4;stroke-dasharray:none;stroke-opacity:1"
     id="path891"
     cx="12.926556"
     cy="9.4304094"
     r="7.5304093" />
  <path
     style="fill:#9f9b80;fill-opacity:1;fill-rule:evenodd;stroke:#3f3d30;stroke-width:3.79999995;stroke-linecap:butt;stroke-linejoin:miter;stroke-miterlimit:4;stroke-dasharray:none;stroke-opacity:1"
     d="m 2.7034931,184.09104 20.1922809,0.0648 -6.110025,-16.51004 c -2.921793,1.66066 -5.150806,1.7074 -8.1780079,0.1026 z"
     id="path895"
     inkscape:connector-curvature="0"
     sodipodi:nodetypes="ccccc" />
</svg>
